{
	"info": {
		"_postman_id": "a2640f8e-4330-4ee7-b21f-daebbb4e163e",
		"name": "API Star Wars",
		"schema": "https://schema.getpostman.com/json/collection/v2.1.0/collection.json"
	},
	"item": [
		{
			"name": "Listar Todos Planetas",
			"request": {
				"method": "GET",
				"header": [
					{
						"key": "Accept",
						"value": "application/json",
						"type": "text"
					},
					{
						"key": "Content-Type",
						"value": "application/json",
						"type": "text"
					}
				],
				"url": {
					"raw": "{{host}}:{{port}}/planetas",
					"host": [
						"{{host}}"
					],
					"port": "{{port}}",
					"path": [
						"planetas"
					]
				}
			},
			"response": []
		},
		{
			"name": "Listar Planeta por ID",
			"request": {
				"method": "GET",
				"header": [
					{
						"key": "Accept",
						"value": "application/json",
						"type": "text"
					},
					{
						"key": "Content-Type",
						"value": "application/json",
						"type": "text"
					}
				],
				"url": {
					"raw": "{{host}}:{{port}}/planetas?id=5f3848fc5d4b44e8449a58d2",
					"host": [
						"{{host}}"
					],
					"port": "{{port}}",
					"path": [
						"planetas"
					],
					"query": [
						{
							"key": "id",
							"value": "5f3848fc5d4b44e8449a58d2"
						}
					]
				}
			},
			"response": []
		},
		{
			"name": "Listar Planeta por Nome",
			"request": {
				"method": "GET",
				"header": [
					{
						"key": "Accept",
						"type": "text",
						"value": "application/json"
					},
					{
						"key": "Content-Type",
						"type": "text",
						"value": "application/json"
					}
				],
				"url": {
					"raw": "{{host}}:{{port}}/planetas?nome=Teste 2",
					"host": [
						"{{host}}"
					],
					"port": "{{port}}",
					"path": [
						"planetas"
					],
					"query": [
						{
							"key": "nome",
							"value": "Teste 2"
						}
					]
				}
			},
			"response": []
		},
		{
			"name": "Cadastrar Planeta",
			"request": {
				"method": "POST",
				"header": [
					{
						"key": "Accept",
						"type": "text",
						"value": "application/json"
					},
					{
						"key": "Content-Type",
						"type": "text",
						"value": "application/json"
					}
				],
				"body": {
					"mode": "raw",
					"raw": "{\n\t\"nome\": \"Teste 2\",\n\t\"clima\": \"teste\",\n\t\"terreno\": \"teste\"\n}"
				},
				"url": {
					"raw": "{{host}}:{{port}}/planetas",
					"host": [
						"{{host}}"
					],
					"port": "{{port}}",
					"path": [
						"planetas"
					]
				}
			},
			"response": []
		},
		{
			"name": "Remover Planeta",
			"request": {
				"method": "DELETE",
				"header": [
					{
						"key": "Accept",
						"type": "text",
						"value": "application/json"
					},
					{
						"key": "Content-Type",
						"type": "text",
						"value": "application/json"
					}
				],
				"body": {
					"mode": "formdata",
					"formdata": []
				},
				"url": {
					"raw": "{{host}}:{{port}}/planetas/5f401fc8e0a51323f0a337a9",
					"host": [
						"{{host}}"
					],
					"port": "{{port}}",
					"path": [
						"planetas",
						"5f401fc8e0a51323f0a337a9"
					]
				}
			},
			"response": []
		}
	],
	"event": [
		{
			"listen": "prerequest",
			"script": {
				"id": "2f6d5c8e-23c2-4804-9513-64e6e05533e5",
				"type": "text/javascript",
				"exec": [
					""
				]
			}
		},
		{
			"listen": "test",
			"script": {
				"id": "69484e81-67c7-4da1-8ffc-c9258490f9a0",
				"type": "text/javascript",
				"exec": [
					""
				]
			}
		}
	],
	"variable": [
		{
			"id": "4be099d9-ce68-43dc-b860-126e1ce999b4",
			"key": "host",
			"value": "localhost",
			"type": "string"
		},
		{
			"id": "af0ada81-fd3c-44f8-9b6a-2d161bbc0abc",
			"key": "port",
			"value": "8080",
			"type": "string"
		}
	],
	"protocolProfileBehavior": {}
}